{
  "response": {
    "items": [{
      "can_doubt_category": false,
      "can_set_category": false,
      "type": "post",
      "source_id": 141450555,
      "date": 1581954650,
      "post_type": "post",
      "text": "Ирина Зенченко - Live",
      "attachments": [{
        "type": "video",
        "video": {
          "access_key": "b7b829dea7564ce5e1",
          "can_comment": 1,
          "can_like": 1,
          "can_repost": 0,
          "can_subscribe": 1,
          "can_add_to_faves": 1,
          "can_add": 1,
          "comments": 0,
          "date": 1581954653,
          "description": "",
          "duration": 63,
          "image": [{
            "height": 96,
            "url": "https://sun9-19.u...d1a/5eJyrVJEHZM.jpg",
            "width": 130,
            "with_padding": 1
          }, {
            "height": 120,
            "url": "https://sun9-14.u...d19/JmBMUbnRUNE.jpg",
            "width": 160,
            "with_padding": 1
          }, {
            "height": 240,
            "url": "https://sun9-45.u...d18/hhj-SrChnFU.jpg",
            "width": 320,
            "with_padding": 1
          }, {
            "height": 450,
            "url": "https://sun9-46.u...d12/Yq3_w_K0PH4.jpg",
            "width": 800,
            "with_padding": 1
          }, {
            "height": 720,
            "url": "https://sun9-62.u...d13/Zlg9sONmulI.jpg",
            "width": 540
          }, {
            "height": 427,
            "url": "https://sun9-69.u...d14/e9E8dyJ1TxI.jpg",
            "width": 320
          }, {
            "height": 960,
            "url": "https://sun9-48.u...d15/-aFMRhZerbo.jpg",
            "width": 720
          }, {
            "height": 1365,
            "url": "https://sun9-35.u...d16/5RjTgQXU5G0.jpg",
            "width": 1024
          }, {
            "height": 4096,
            "url": "https://sun9-38.u...d17/1KOD3Ho77Ms.jpg",
            "width": 3072
          }],
          "first_frame": [{
            "height": 1067,
            "url": "https://sun9-47.u...4ca/xDrgor4GXCY.jpg",
            "width": 800
          }, {
            "height": 1707,
            "url": "https://sun9-56.u...4cb/yFi5vHNipuM.jpg",
            "width": 1280
          }, {
            "height": 427,
            "url": "https://sun9-21.u...4cc/vP7efL73vsA.jpg",
            "width": 320
          }, {
            "height": 960,
            "url": "https://sun9-18.u...4cd/aLsaDn80Fok.jpg",
            "width": 720
          }, {
            "height": 1365,
            "url": "https://sun9-67.u...4ce/Jz7_TRzXA60.jpg",
            "width": 1024
          }, {
            "height": 5461,
            "url": "https://sun9-7.us...4cf/QHn53VbePyc.jpg",
            "width": 4096
          }, {
            "height": 427,
            "url": "https://sun9-13.u...4d0/jn5LkgmkR1c.jpg",
            "width": 320
          }, {
            "height": 213,
            "url": "https://sun9-10.u...4d1/ikpr4keNLBA.jpg",
            "width": 160
          }, {
            "height": 173,
            "url": "https://sun9-23.u...4d2/3VFUN1yfy5I.jpg",
            "width": 130
          }],
          "width": 720,
          "height": 960,
          "id": 456239048,
          "owner_id": 141450555,
          "title": "Ирина Зенченко - Live",
          "is_favorite": 0,
          "track_code": "video_25bc7293sM6iBF0M_FOc7t-I3CWTq2799FO7tZ9QOMv1jzTesQeH6KZvXgzxW5EtPFwyEaWZXcTE",
          "type": "video",
          "views": 138
        }
      }],
      "post_source": {
        "type": "vk"
      },
      "comments": {
        "count": 0,
        "can_post": 0,
        "groups_can_post": true
      },
      "likes": {
        "count": 13,
        "user_likes": 0,
        "can_like": 1,
        "can_publish": 0
      },
      "reposts": {
        "count": 0,
        "user_reposted": 0
      },
      "views": {
        "count": 94
      },
      "is_favorite": false,
      "post_id": 24888
    }],
    "profiles": [{
      "id": 141450555,
      "first_name": "Ирина",
      "last_name": "Зенченко",
      "is_closed": true,
      "can_access_closed": true,
      "sex": 1,
      "screen_name": "id141450555",
      "photo_50": "https://sun9-52.u...4wSRDYui4.jpg?ava=1",
      "photo_100": "https://sun9-35.u...tzqJIrgEo.jpg?ava=1",
      "online": 0,
      "online_info": {
        "visible": true,
        "last_seen": 1582088016,
        "app_id": 2274003,
        "is_mobile": true
      }
    }],
    "groups": [],
    "next_from": "1/5_141450555_24888:457370486"
  }
}