{
  "response": {
    "items": [{
      "can_doubt_category": false,
      "can_set_category": false,
      "type": "post",
      "source_id": -102590561,
      "date": 1581880531,
      "post_type": "post",
      "text": "Тёплого вечера, проводарищ. Скоро лето. Скоро всё будет хорошо. Будет так, как тогда, во сне. Всё будет. Всегда на связи. 73.",
      "signer_id": 113522274,
      "marked_as_ads": 0,
      "attachments": [{
        "type": "album",
        "album": {
          "id": "260492146",
          "thumb": {
            "id": 456243248,
            "album_id": 260492146,
            "owner_id": -106556352,
            "user_id": 100,
            "sizes": [{
              "type": "m",
              "url": "https://sun9-23.u...44b/14UyaclH_78.jpg",
              "width": 109,
              "height": 130
            }, {
              "type": "o",
              "url": "https://sun9-26.u...450/fOWRDbUaLWc.jpg",
              "width": 130,
              "height": 155
            }],
            "text": "",
            "date": 1549784535,
            "access_key": "86e41f6c015639b25f"
          },
          "owner_id": -106556352,
          "title": "дёшево и сердито",
          "description": "2017 - н.в. повседневность/ломтик жизни 16+",
          "created": 1549784398,
          "updated": 1581856035,
          "size": 393
        }
      }, {
        "type": "audio",
        "audio": {
          "artist": "Ev3nmorn",
          "id": 456243154,
          "owner_id": 2000436145,
          "title": "Surf Solar",
          "duration": 25,
          "track_code": "684e1435WoxArq7VbSdqPbyqP7rjETLR99lSOQQu-M4Zq6FvFzu2NNPf",
          "url": "https://vk.com/mp...api_unavailable.mp3",
          "date": 1581880531,
          "lyrics_id": 25921997,
          "genre_id": 18
        }
      }],
      "post_source": {
        "type": "vk"
      },
      "comments": {
        "count": 0,
        "can_post": 1,
        "groups_can_post": true
      },
      "likes": {
        "count": 8,
        "user_likes": 0,
        "can_like": 1,
        "can_publish": 1
      },
      "reposts": {
        "count": 2,
        "user_reposted": 0
      },
      "views": {
        "count": 219
      },
      "is_favorite": false,
      "post_id": 1747
      }],
    "profiles": [{
      "id": 100,
      "first_name": "Администрация ВКонтакте",
      "last_name": "",
      "is_closed": false,
      "can_access_closed": true,
      "sex": 1,
      "screen_name": "id100",
      "photo_50": "https://sun1-26.u...CxibtpFzY.jpg?ava=1",
      "photo_100": "https://sun1-86.u...UZSEHZlt4.jpg?ava=1",
      "online": 1,
      "online_mobile": 1,
      "online_info": {
        "visible": true,
        "is_online": true,
        "is_mobile": true
      }
    }, {
      "id": 113522274,
      "first_name": "Акито",
      "last_name": "Ивакура",
      "is_closed": false,
      "can_access_closed": true,
      "sex": 2,
      "screen_name": "tenkaichi",
      "photo_50": "https://sun1-22.u...J-1UOizFw.jpg?ava=1",
      "photo_100": "https://sun1-15.u...Xot_gtL4U.jpg?ava=1",
      "online": 1,
      "online_info": {
        "visible": true,
        "is_online": true
      }
    }],
    "groups": [ {
      "id": 102590561,
      "name": "Радио «Проводач»",
      "screen_name": "provodach",
      "is_closed": 0,
      "type": "page",
      "is_admin": 0,
      "is_member": 1,
      "is_advertiser": 0,
      "photo_50": "https://sun9-32.u...2K_FYWB3o.jpg?ava=1",
      "photo_100": "https://sun9-10.u...uxOPCGmZo.jpg?ava=1",
      "photo_200": "https://sun9-49.u...LFJ0INKXg.jpg?ava=1"
    }],
    "next_from": "15/5_12263528_10848:1812968277"
  }
}