{
  "response": {
    "items": [{
      "can_doubt_category": false,
      "can_set_category": false,
      "type": "post",
      "source_id": -43179428,
      "date": 1581942801,
      "post_type": "post",
      "text": "Вкуснотеевъ- Лауреат Международного конкурса. #вкуснотеевъ #сладости #восточка #печенье #вкусное #полезное #выставка #продэкспо #продэкспо2020 #казань",
      "marked_as_ads": 0,
      "attachments": [{
        "type": "link",
        "link": {
          "url": "https://m.vk.com/...unarodnogo-konkursa",
          "title": "Компания \"Вкуснотеевъ\" - Лауреат Международного конкурса",
          "caption": "m.vk.com",
          "description": "Статья",
          "photo": {
            "id": 457239087,
            "album_id": -66,
            "owner_id": -43179428,
            "user_id": 100,
            "sizes": [{
              "type": "m",
              "url": "https://sun9-2.us...ac2/w5pdPGqhsPI.jpg",
              "width": 130,
              "height": 130
            }, {
              "type": "o",
              "url": "https://sun9-41.u...ac7/S1iTvoUXTHQ.jpg",
              "width": 130,
              "height": 130
            }, {
              "type": "p",
              "url": "https://sun9-31.u...ac8/AiLTvzuUSAo.jpg",
              "width": 200,
              "height": 200
            }, {
              "type": "q",
              "url": "https://sun9-28.u...ac9/KYZJvWngd5s.jpg",
              "width": 320,
              "height": 320
            }, {
              "type": "r",
              "url": "https://sun9-68.u...aca/aAPIamrvAYI.jpg",
              "width": 510,
              "height": 510
            }, {
              "type": "s",
              "url": "https://sun9-55.u...ac1/L8onmpJuhK0.jpg",
              "width": 75,
              "height": 75
            }, {
              "type": "w",
              "url": "https://sun9-19.u...ac6/NXLJdTKEe5g.jpg",
              "width": 1200,
              "height": 1200
            }, {
              "type": "x",
              "url": "https://sun9-56.u...ac3/kibKjwLtw_g.jpg",
              "width": 604,
              "height": 604
            }, {
              "type": "y",
              "url": "https://sun9-7.us...ac4/wO6w-XZLVS0.jpg",
              "width": 807,
              "height": 807
            }, {
              "type": "z",
              "url": "https://sun9-12.u...ac5/wb5lDtnWDIg.jpg",
              "width": 1080,
              "height": 1080
            }],
            "text": "",
            "date": 1581942436
          },
          "button": {
            "title": "Читать",
            "action": {
              "type": "open_url",
              "url": "https://m.vk.com/...unarodnogo-konkursa"
            }
          }
        }
      }],
      "post_source": {
        "type": "vk"
      },
      "comments": {
        "count": 0,
        "can_post": 1,
        "groups_can_post": true
      },
      "likes": {
        "count": 38,
        "user_likes": 0,
        "can_like": 1,
        "can_publish": 1
      },
      "reposts": {
        "count": 1,
        "user_reposted": 0
      },
      "views": {
        "count": 1119
      },
      "is_favorite": true,
      "post_id": 408
    }],
    "profiles": [{
      "id": 100,
      "first_name": "Администрация ВКонтакте",
      "last_name": "",
      "is_closed": false,
      "can_access_closed": true
    }],
    "groups": [{
      "id": 43179428,
      "name": "\"Вкуснотеевъ\" кондитерская фабрика",
      "screen_name": "vkusnoteev",
      "is_closed": 0,
      "type": "group",
      "is_admin": 0,
      "is_member": 1,
      "is_advertiser": 0,
      "photo_50": "https://sun1-24.u...ZyRaPBQvk.jpg?ava=1",
      "photo_100": "https://sun1-29.u...X56iScUN0.jpg?ava=1",
      "photo_200": "https://sun1-20.u...RgW-uqiXo.jpg?ava=1"
    }],
    "next_from": "1/5_-43179428_408:832240307"
  }
}